{
    "finishes":{
        "title": "mechanical",
        "elements":[
            "Buff Polishing",
            "Vibratory Polishing",
           " Brushing",
            "Blasting",
            "Laser Marking"
        ]
    }

}